\BOOKMARK [1][-]{section.1}{To Do List}{}% 1
\BOOKMARK [2][-]{subsection.1.1}{Need to be developed}{section.1}% 2
\BOOKMARK [2][-]{subsection.1.2}{Refactoring}{section.1}% 3
\BOOKMARK [2][-]{subsection.1.3}{Organization}{section.1}% 4
\BOOKMARK [2][-]{subsection.1.4}{Checking}{section.1}% 5
